{
  "geocoded_waypoints": [
    {
      "geocoder_status": "OK",
      "place_id": "ChIJ4RJ15WubXjkR8BKqZ-K56kY",
      "types": [
        "route"
      ]
    },
    {
      "geocoder_status": "OK",
      "place_id": "ChIJqzQuMrCEXjkRpEmbAkMgAlw",
      "types": [
        "street_address"
      ]
    }
  ],
  "routes": [
    {
      "bounds": {
        "northeast": {
          "lat": 23.0464884,
          "lng": 72.52972559999999
        },
        "southwest": {
          "lat": 23.0336606,
          "lng": 72.49170029999999
        }
      },
      "copyrights": "Map data ©2019 Google",
      "legs": [
        {
          "distance": {
            "text": "5.3 km",
            "value": 5330
          },
          "duration": {
            "text": "12 mins",
            "value": 745
          },
          "end_address": "2, Sunrise Park Road, Sunrise Park, Gurukul, Ahmedabad, Gujarat 380052, India",
          "end_location": {
            "lat": 23.0454482,
            "lng": 72.52972559999999
          },
          "start_address": "Rajpath Rangoli Rd, PRL Colony, Thaltej, Ahmedabad, Gujarat 380058, India",
          "start_location": {
            "lat": 23.0355239,
            "lng": 72.49170029999999
          },
          "steps": [
            {
              "distance": {
                "text": "1.8 km",
                "value": 1807
              },
              "duration": {
                "text": "3 mins",
                "value": 199
              },
              "end_location": {
                "lat": 23.0336956,
                "lng": 72.5092428
              },
              "html_instructions": "Head \u003cb\u003eeast\u003c/b\u003e on \u003cb\u003eRajpath Rangoli Rd\u003c/b\u003e",
              "polyline": {
                "points": "_crkCcpmyL`@uHHsBVmET_ENqDZkGReD?GPmCj@}M`@_IBQHgBB_@PqEJqBR}CFgB`@yHBeA"
              },
              "start_location": {
                "lat": 23.0355239,
                "lng": 72.49170029999999
              },
              "travel_mode": "DRIVING"
            },
            {
              "distance": {
                "text": "0.9 km",
                "value": 899
              },
              "duration": {
                "text": "2 mins",
                "value": 125
              },
              "end_location": {
                "lat": 23.0409073,
                "lng": 72.5129091
              },
              "html_instructions": "Slight \u003cb\u003eleft\u003c/b\u003e onto \u003cb\u003eSarkhej - Gandhinagar Hwy\u003c/b\u003e",
              "maneuver": "turn-slight-left",
              "polyline": {
                "points": "swqkCw}pyLF]iDgAqBw@}CmAyCeA}B}@kD{A[KSMu@YQGi@UUG{Bw@}DcBy@["
              },
              "start_location": {
                "lat": 23.0336956,
                "lng": 72.5092428
              },
              "travel_mode": "DRIVING"
            },
            {
              "distance": {
                "text": "0.7 km",
                "value": 670
              },
              "duration": {
                "text": "1 min",
                "value": 75
              },
              "end_location": {
                "lat": 23.0464249,
                "lng": 72.5154725
              },
              "html_instructions": "Slight \u003cb\u003eleft\u003c/b\u003e onto \u003cb\u003ePatel Ave\u003c/b\u003e",
              "maneuver": "turn-slight-left",
              "polyline": {
                "points": "udskCutqyLm@?A?A?gDuAyJyDgHiCuDsA[Q"
              },
              "start_location": {
                "lat": 23.0409073,
                "lng": 72.5129091
              },
              "travel_mode": "DRIVING"
            },
            {
              "distance": {
                "text": "1.2 km",
                "value": 1224
              },
              "duration": {
                "text": "3 mins",
                "value": 186
              },
              "end_location": {
                "lat": 23.0415076,
                "lng": 72.52590379999999
              },
              "html_instructions": "Turn \u003cb\u003eright\u003c/b\u003e onto \u003cb\u003eSargam Marg\u003c/b\u003e\u003cdiv style=font-size: 0.9em\u003ePass by Forest Deptt. Bodakdev Information Centre (on the left)\u003c/div\u003e",
              "maneuver": "turn-right",
              "polyline": {
                "points": "cgtkCudryLMGBE@EPa@Na@T_@HM|C_ENQBCjBuBLOBGDEFKDIPc@Ro@VgAx@aEHc@DUViADUXmAd@uBDS\\{A`AiEVeAd@oBJ]BKHWZy@x@aBz@}ABE\\q@"
              },
              "start_location": {
                "lat": 23.0464249,
                "lng": 72.5154725
              },
              "travel_mode": "DRIVING"
            },
            {
              "distance": {
                "text": "0.4 km",
                "value": 366
              },
              "duration": {
                "text": "1 min",
                "value": 72
              },
              "end_location": {
                "lat": 23.0444933,
                "lng": 72.5274046
              },
              "html_instructions": "Turn \u003cb\u003eleft\u003c/b\u003e",
              "maneuver": "turn-left",
              "polyline": {
                "points": "mhskC{etyLAA{@_@u@[}EmBaG_C"
              },
              "start_location": {
                "lat": 23.0415076,
                "lng": 72.52590379999999
              },
              "travel_mode": "DRIVING"
            },
            {
              "distance": {
                "text": "0.1 km",
                "value": 129
              },
              "duration": {
                "text": "1 min",
                "value": 37
              },
              "end_location": {
                "lat": 23.0440171,
                "lng": 72.5285579
              },
              "html_instructions": "Turn \u003cb\u003eright\u003c/b\u003e",
              "maneuver": "turn-right",
              "polyline": {
                "points": "a{skCgotyLn@wBl@mB?A"
              },
              "start_location": {
                "lat": 23.0444933,
                "lng": 72.5274046
              },
              "travel_mode": "DRIVING"
            },
            {
              "distance": {
                "text": "0.2 km",
                "value": 235
              },
              "duration": {
                "text": "1 min",
                "value": 51
              },
              "end_location": {
                "lat": 23.0454482,
                "lng": 72.52972559999999
              },
              "html_instructions": "Turn \u003cb\u003eleft\u003c/b\u003e\u003cdiv style=font-size: 0.9em\u003eDestination will be on the left\u003c/div\u003e",
              "maneuver": "turn-left",
              "polyline": {
                "points": "cxskCovtyLi@QyB{@qB{@c@S?A?CZeA"
              },
              "start_location": {
                "lat": 23.0440171,
                "lng": 72.5285579
              },
              "travel_mode": "DRIVING"
            }
          ],
          "traffic_speed_entry": [

          ],
          "via_waypoint": [

          ]
        }
      ],
      "overview_polyline": {
        "points": "_crkCcpmyLj@iLl@mKj@}LRmD|@kRd@qIj@kMR}CFgBd@_KF]iDgAoGeCwGcCgEgBeCeAqC_AwF_Co@?iDuAyJyDgHiCuDsA[QMGBERg@d@aAfDmElC{CVc@d@sApAiGl@yCbBsHjC}KLc@tA{C~@cBZs@qQiH|AgFcDmAuCoA?EZeA"
      },
      "summary": "Rajpath Rangoli Rd",
      "warnings": [

      ],
      "waypoint_order": [

      ]
    }
  ],
  "status": "OK"
}